ApparityPageFactory\ApparityPageFactoryCreateNewSurvey.class
ApparityPageFactory\ApparityPageFactoryComplianceSurvey.class
ApparityPageFactory\ApparityPageFactoryLoginPage.class
ApparityPageFactory\ApparityPageFactoryHomepage.class
ApparityStepDefinitions\ComplianceSurvey.class
ApparityStepDefinitions\ApparityLogin.class
runner\TestRunner.class
ApparityPageFactory\ApparityPageFactoryLeftSideBar.class
